Restaurant Scores - LIVES Standard
…
# Bake
baked_train <- bake(prepare, new_data = Rscore)
baked_test <- bake(prepare, new_data = Rscore)

baked_train

## # A tibble: 5,208 x 2
##    business_id inspection_score
##          <dbl>            <dbl>
##  1      -0.517               71
##  2       1.93                94
##  3      -0.702               81
##  4      -0.604               87
##  5      -0.702               81
##  6      -0.581               94
##  7      -0.552               77
##  8      -0.514               78
##  9      -0.584               85
## 10       1.99                90
## #  with 5,198 more rows
…
